<?xml version="1.0" encoding="UTF-8" standalone="no"?>
<svg
   width="58.872005"
   height="58.869011"
   viewBox="0 0 58.872007 58.869011"
   version="1.1"
   id="svg220"
   sodipodi:docname="airflow-logo.svg"
   inkscape:version="1.2.2 (b0a8486541, 2022-12-01)"
   xmlns:inkscape="http://www.inkscape.org/namespaces/inkscape"
   xmlns:sodipodi="http://sodipodi.sourceforge.net/DTD/sodipodi-0.dtd"
   xmlns="http://www.w3.org/2000/svg"
   xmlns:svg="http://www.w3.org/2000/svg">
  <sodipodi:namedview
     id="namedview222"
     pagecolor="#ffffff"
     bordercolor="#111111"
     borderopacity="1"
     inkscape:showpageshadow="0"
     inkscape:pageopacity="0"
     inkscape:pagecheckerboard="1"
     inkscape:deskcolor="#d1d1d1"
     showgrid="false"
     inkscape:zoom="5.9003723"
     inkscape:cx="79.147549"
     inkscape:cy="30.337069"
     inkscape:window-width="1920"
     inkscape:window-height="1011"
     inkscape:window-x="0"
     inkscape:window-y="0"
     inkscape:window-maximized="1"
     inkscape:current-layer="svg220" />
  <defs
     id="defs203">
    <clipPath
       id="clip-path">
      <path
         id="Rectangle_1"
         d="M 0,0 H 155.314 V 60 H 0 Z"
         fill="none"
         data-name="Rectangle 1" />
    </clipPath>
  </defs>
  <g
     id="logo"
     transform="translate(-1305.486,-780.83999)">
    <g
       id="Group_2"
       clip-path="url(#clip-path)"
       data-name="Group 2"
       transform="translate(1305,780.355)">
      <g
         id="Group_1"
         data-name="Group 1"
         transform="translate(0.486,0.486)">
        <path
           id="Path_1"
           d="m 1307.562,880.867 28.187,-28.893 a 0.521,0.521 0 0 0 0.063,-0.666 c -1.714,-2.393 -4.877,-2.808 -6.049,-4.416 -3.472,-4.763 -4.353,-7.459 -5.845,-7.292 a 0.456,0.456 0 0 0 -0.271,0.143 l -10.182,10.438 c -5.858,6 -6.7,19.225 -6.852,30.3 a 0.552,0.552 0 0 0 0.949,0.386 z"
           fill="#017cee"
           data-name="Path 1"
           transform="translate(-1306.613,-822.232)" />
        <path
           id="Path_2"
           d="M 1405.512,908.489 1376.619,880.3 a 0.521,0.521 0 0 0 -0.667,-0.063 c -2.393,1.715 -2.808,4.877 -4.416,6.049 -4.763,3.472 -7.459,4.353 -7.292,5.845 a 0.456,0.456 0 0 0 0.143,0.27 l 10.438,10.182 c 6,5.858 19.225,6.7 30.3,6.852 a 0.552,0.552 0 0 0 0.387,-0.946 z"
           fill="#00ad46"
           data-name="Path 2"
           transform="translate(-1346.876,-850.567)" />
        <path
           id="Path_3"
           d="m 1373.909,902.252 c -3.28,-3.2 -4.8,-9.53 1.486,-22.583 -10.219,4.567 -13.8,10.57 -12.039,12.289 z"
           fill="#04d659"
           data-name="Path 3"
           transform="translate(-1345.96,-850.233)" />
        <path
           id="Path_4"
           d="m 1433.132,782.359 -28.186,28.893 a 0.52,0.52 0 0 0 -0.063,0.666 c 1.715,2.393 4.876,2.808 6.049,4.416 3.472,4.763 4.354,7.459 5.845,7.292 a 0.454,0.454 0 0 0 0.271,-0.143 l 10.182,-10.438 c 5.858,-6 6.7,-19.225 6.852,-30.3 a 0.553,0.553 0 0 0 -0.95,-0.386 z"
           fill="#00c7d4"
           data-name="Path 4"
           transform="translate(-1375.21,-782.123)" />
        <path
           id="Path_5"
           d="m 1426.9,881.155 c -3.2,3.28 -9.53,4.8 -22.584,-1.486 4.567,10.219 10.57,13.8 12.289,12.039 z"
           fill="#11e1ee"
           data-name="Path 5"
           transform="translate(-1374.875,-850.233)" />
        <path
           id="Path_6"
           d="m 1307,782.919 28.893,28.186 a 0.521,0.521 0 0 0 0.666,0.063 c 2.393,-1.715 2.808,-4.877 4.416,-6.049 4.763,-3.472 7.459,-4.353 7.292,-5.845 a 0.459,0.459 0 0 0 -0.143,-0.271 l -10.438,-10.182 c -6,-5.858 -19.225,-6.7 -30.3,-6.852 a 0.552,0.552 0 0 0 -0.386,0.95 z"
           fill="#e43921"
           data-name="Path 6"
           transform="translate(-1306.766,-781.97)" />
        <path
           id="Path_7"
           d="m 1405.8,804.711 c 3.28,3.2 4.8,9.53 -1.486,22.584 10.219,-4.567 13.8,-10.571 12.039,-12.289 z"
           fill-rule="evenodd"
           fill="#ff7557"
           data-name="Path 7"
           transform="translate(-1374.875,-797.859)" />
        <path
           id="Path_8"
           d="m 1329.355,849.266 c 3.2,-3.28 9.53,-4.8 22.584,1.486 -4.567,-10.219 -10.57,-13.8 -12.289,-12.039 z"
           fill="#0cb6ff"
           data-name="Path 8"
           transform="translate(-1322.503,-821.316)" />
        <circle
           id="Ellipse_1"
           cx="1.26"
           cy="1.26"
           r="1.26"
           fill="#4a4848"
           data-name="Ellipse 1"
           transform="translate(28.18,28.171)" />
      </g>
    </g>
  </g>
</svg>
