<?xml version="1.0" encoding="UTF-8" standalone="no"?>
<svg
   viewBox="0 0 52.799999 59.999998"
   version="1.1"
   id="svg200"
   sodipodi:docname="terraform-logo.svg"
   width="52.799999"
   height="60"
   inkscape:version="1.2.2 (b0a8486541, 2022-12-01)"
   xmlns:inkscape="http://www.inkscape.org/namespaces/inkscape"
   xmlns:sodipodi="http://sodipodi.sourceforge.net/DTD/sodipodi-0.dtd"
   xmlns="http://www.w3.org/2000/svg"
   xmlns:svg="http://www.w3.org/2000/svg">
  <defs
     id="defs204" />
  <sodipodi:namedview
     id="namedview202"
     pagecolor="#ffffff"
     bordercolor="#111111"
     borderopacity="1"
     inkscape:showpageshadow="0"
     inkscape:pageopacity="0"
     inkscape:pagecheckerboard="1"
     inkscape:deskcolor="#d1d1d1"
     showgrid="false"
     inkscape:zoom="5.184"
     inkscape:cx="124.4213"
     inkscape:cy="29.899691"
     inkscape:window-width="1920"
     inkscape:window-height="1011"
     inkscape:window-x="0"
     inkscape:window-y="0"
     inkscape:window-maximized="1"
     inkscape:current-layer="svg200" />
  <path
     class="rect-dark"
     fill="#4040b2"
     d="M 36.4,20.05 V 38.98 L 52.8,29.52 V 10.57 Z"
     id="path194" />
  <path
     class="rect-light"
     fill="#5c4ee5"
     d="m 18.2,10.57 16.4,9.48 V 38.98 L 18.2,29.51 Z"
     id="path196" />
  <path
     class="rect-light"
     fill="#5c4ee5"
     d="m 0,0 v 18.94 l 16.4,9.47 V 9.47 Z M 18.2,50.53 34.6,60 V 41.06 L 18.2,31.59 Z"
     id="path198" />
</svg>
